; Engine configuration file.
; It's best edited using the editor UI and not directly,
; since the parameters that go here are not all obvious.
;
; Format:
;   [section] ; section goes between []
;   param=value ; assign values to parameters

config_version=4

[application]

config/name="Mundo Celular"
config/description="Mundo celular es un proyecto que nace en base a un trabajo practico educativo. La idea es generar una forma Ludica de conocer las Celulas. Que el mismo pueda ser utilizado para explicar o para reforzar conocimiento."
run/main_scene="res://interfaces/Inicio.tscn"
boot_splash/bg_color=Color( 0, 0, 0, 1 )
config/icon="res://icon.png"
config/macos_native_icon="res://icon.png"
config/windows_native_icon="res://icon.png"

[autoload]

Global="*res://Global.gd"
GlobalScene="*res://Global.tscn"

[display]

window/size/width=960
window/size/height=540
window/size/resizable=false
window/stretch/mode="2d"
window/stretch/aspect="keep"

[input_devices]

pointing/emulate_touch_from_mouse=true

[physics]

common/enable_pause_aware_picking=true

[rendering]

quality/driver/driver_name="GLES2"
vram_compression/import_etc=true
vram_compression/import_etc2=false
environment/default_environment="res://default_env.tres"
